[
  {
    "year": 1991,
    "population": 750567,
    "cost": 89.50
  },
  {
    "year": 2001,
    "population": 830278,
    "cost": 190.50
  },
  {
    "year": 2011,
    "population": 978980,
    "cost": 275.50
  },
  {
    "year": 2016,
    "population": 1054537,
    "cost": 320.50
  },
  {
    "year": 2021,
    "population": 1150546,
    "cost": 350.50
  }
]
